Experiments/Modern_physics_Experiment/Modern_physics_Experiment_I/Caracteristic_of_Liquid_crystal/Data/光电响应数据/ALL0002/F0002CH1.CSV

Record Length,2.500000e+03,,   0.533000000000,   8.08000,
Sample Interval,1.000000e-04,,   0.533100000000,   8.08000,
Trigger Point,-5.330000000000e+03,,   0.533200000000,   8.08000,
,,,   0.533300000000,   8.00000,
,,,   0.533400000000,   8.00000,
,,,   0.533500000000,   8.00000,
Source,CH1,,   0.533600000000,   7.92000,
Vertical Units,V,,   0.533700000000,   7.92000,
Vertical Scale,2.000000e+00,,   0.533800000000,   8.00000,
Vertical Offset,-3.760000e+00,,   0.533900000000,   7.92000,
Horizontal Units,s,,   0.534000000000,   7.92000,
Horizontal Scale,2.500000e-02,,   0.534100000000,   7.92000,
Pt Fmt,Y,,   0.534200000000,   7.92000,
Yzero,0.000000e+00,,   0.534300000000,   7.92000,
Probe Atten,1.000000e+00,,   0.534400000000,   7.84000,
Model Number,TDS2012C,,   0.534500000000,   7.84000,
Serial Number,C044957,,   0.534600000000,   7.84000,
Firmware Version,FV:v24.26,,   0.534700000000,   7.76000,
,,,0.534800000000,   7.76000,
,,,0.534900000000,   7.84000,
,,,0.535000000000,   7.76000,
,,,0.535100000000,   7.68000,
,,,0.535200000000,   7.68000,
,,,0.535300000000,   7.68000,
,,,0.535400000000,   7.68000,
,,,0.535500000000,   7.60000,
,,,0.535600000000,   7.60000,
,,,0.535700000000,   7.60000,
,,,0.535800000000,   7.60000,
,,,0.535900000000,   7.60000,
,,,0.536000000000,   7.52000,
,,,0.536100000000,   7.52000,
,,,0.536200000000,   7.52000,
,,,0.536300000000,   7.52000,
,,,0.536400000000,   7.52000,
,,,0.536500000000,   7.44000,
,,,0.536600000000,   7.44000,
,,,0.536700000000,   7.36000,
,,,0.536800000000,   7.36000,
,,,0.536900000000,   7.36000,
,,,0.537000000000,   7.36000,
,,,0.537100000000,   7.36000,
,,,0.537200000000,   7.28000,
,,,0.537300000000,   7.28000,
,,,0.537400000000,   7.28000,
,,,0.537500000000,   7.28000,
,,,0.537600000000,   7.20000,
,,,0.537700000000,   7.20000,
,,,0.537800000000,   7.20000,
,,,0.537900000000,   7.20000,
,,,0.538000000000,   7.12000,
,,,0.538100000000,   7.12000,
,,,0.538200000000,   7.12000,
,,,0.538300000000,   7.12000,
,,,0.538400000000,   7.12000,
,,,0.538500000000,   7.04000,
,,,0.538600000000,   7.04000,
,,,0.538700000000,   7.04000,
,,,0.538800000000,   7.04000,
,,,0.538900000000,   7.04000,
,,,0.539000000000,   6.96000,
,,,0.539100000000,   6.96000,
,,,0.539200000000,   6.96000,
,,,0.539300000000,   6.96000,
,,,0.539400000000,   6.88000,
,,,0.539500000000,   6.88000,
,,,0.539600000000,   6.88000,
,,,0.539700000000,   6.88000,
,,,0.539800000000,   6.80000,
,,,0.539900000000,   6.80000,
,,,0.540000000000,   6.80000,
,,,0.540100000000,   6.80000,
,,,0.540200000000,   6.72000,
,,,0.540300000000,   6.72000,
,,,0.540400000000,   6.72000,
,,,0.540500000000,   6.72000,
,,,0.540600000000,   6.64000,
,,,0.540700000000,   6.64000,
,,,0.540800000000,   6.64000,
,,,0.540900000000,   6.64000,
,,,0.541000000000,   6.56000,
,,,0.541100000000,   6.56000,
,,,0.541200000000,   6.56000,
,,,0.541300000000,   6.56000,
,,,0.541400000000,   6.48000,
,,,0.541500000000,   6.48000,
,,,0.541600000000,   6.48000,
,,,0.541700000000,   6.48000,
,,,0.541800000000,   6.40000,
,,,0.541900000000,   6.48000,
,,,0.542000000000,   6.48000,
,,,0.542100000000,   6.40000,
,,,0.542200000000,   6.40000,
,,,0.542300000000,   6.40000,
,,,0.542400000000,   6.40000,
,,,0.542500000000,   6.32000,
,,,0.542600000000,   6.32000,
,,,0.542700000000,   6.24000,
,,,0.542800000000,   6.32000,
,,,0.542900000000,   6.24000,
,,,0.543000000000,   6.24000,
,,,0.543100000000,   6.24000,
,,,0.543200000000,   6.16000,
,,,0.543300000000,   6.16000,
,,,0.543400000000,   6.16000,
,,,0.543500000000,   6.08000,
,,,0.543600000000,   6.16000,
,,,0.543700000000,   6.08000,
,,,0.543800000000,   6.08000,
,,,0.543900000000,   6.08000,
,,,0.544000000000,   6.08000,
,,,0.544100000000,   6.00000,
,,,0.544200000000,   6.00000,
,,,0.544300000000,   6.00000,
,,,0.544400000000,   6.00000,
,,,0.544500000000,   6.00000,
,,,0.544600000000,   6.00000,
,,,0.544700000000,   5.92000,
,,,0.544800000000,   5.92000,
,,,0.544900000000,   5.92000,
,,,0.545000000000,   5.92000,
,,,0.545100000000,   5.84000,
,,,0.545200000000,   5.76000,
,,,0.545300000000,   5.84000,
,,,0.545400000000,   5.76000,
,,,0.545500000000,   5.76000,
,,,0.545600000000,   5.76000,
,,,0.545700000000,   5.76000,
,,,0.545800000000,   5.76000,
,,,0.545900000000,   5.68000,
,,,0.546000000000,   5.68000,
,,,0.546100000000,   5.68000,
,,,0.546200000000,   5.60000,
,,,0.546300000000,   5.60000,
,,,0.546400000000,   5.60000,
,,,0.546500000000,   5.60000,
,,,0.546600000000,   5.52000,
,,,0.546700000000,   5.52000,
,,,0.546800000000,   5.52000,
,,,0.546900000000,   5.52000,
,,,0.547000000000,   5.52000,
,,,0.547100000000,   5.44000,
,,,0.547200000000,   5.44000,
,,,0.547300000000,   5.44000,
,,,0.547400000000,   5.44000,
,,,0.547500000000,   5.44000,
,,,0.547600000000,   5.36000,
,,,0.547700000000,   5.36000,
,,,0.547800000000,   5.36000,
,,,0.547900000000,   5.28000,
,,,0.548000000000,   5.36000,
,,,0.548100000000,   5.28000,
,,,0.548200000000,   5.20000,
,,,0.548300000000,   5.28000,
,,,0.548400000000,   5.20000,
,,,0.548500000000,   5.20000,
,,,0.548600000000,   5.20000,
,,,0.548700000000,   5.12000,
,,,0.548800000000,   5.12000,
,,,0.548900000000,   5.12000,
,,,0.549000000000,   5.12000,
,,,0.549100000000,   5.12000,
,,,0.549200000000,   5.12000,
,,,0.549300000000,   5.04000,
,,,0.549400000000,   5.04000,
,,,0.549500000000,   5.04000,
,,,0.549600000000,   4.96000,
,,,0.549700000000,   5.04000,
,,,0.549800000000,   4.96000,
,,,0.549900000000,   4.96000,
,,,0.550000000000,   4.96000,
,,,0.550100000000,   4.88000,
,,,0.550200000000,   4.88000,
,,,0.550300000000,   4.88000,
,,,0.550400000000,   4.80000,
,,,0.550500000000,   4.80000,
,,,0.550600000000,   4.80000,
,,,0.550700000000,   4.80000,
,,,0.550800000000,   4.72000,
,,,0.550900000000,   4.80000,
,,,0.551000000000,   4.80000,
,,,0.551100000000,   4.72000,
,,,0.551200000000,   4.72000,
,,,0.551300000000,   4.72000,
,,,0.551400000000,   4.64000,
,,,0.551500000000,   4.64000,
,,,0.551600000000,   4.72000,
,,,0.551700000000,   4.64000,
,,,0.551800000000,   4.56000,
,,,0.551900000000,   4.56000,
,,,0.552000000000,   4.56000,
,,,0.552100000000,   4.56000,
,,,0.552200000000,   4.56000,
,,,0.552300000000,   4.48000,
,,,0.552400000000,   4.48000,
,,,0.552500000000,   4.40000,
,,,0.552600000000,   4.48000,
,,,0.552700000000,   4.48000,
,,,0.552800000000,   4.40000,
,,,0.552900000000,   4.40000,
,,,0.553000000000,   4.32000,
,,,0.553100000000,   4.32000,
,,,0.553200000000,   4.32000,
,,,0.553300000000,   4.32000,
,,,0.553400000000,   4.32000,
,,,0.553500000000,   4.24000,
,,,0.553600000000,   4.24000,
,,,0.553700000000,   4.24000,
,,,0.553800000000,   4.24000,
,,,0.553900000000,   4.24000,
,,,0.554000000000,   4.16000,
,,,0.554100000000,   4.16000,
,,,0.554200000000,   4.16000,
,,,0.554300000000,   4.08000,
,,,0.554400000000,   4.08000,
,,,0.554500000000,   4.08000,
,,,0.554600000000,   4.00000,
,,,0.554700000000,   4.08000,
,,,0.554800000000,   4.08000,
,,,0.554900000000,   4.00000,
,,,0.555000000000,   4.00000,
,,,0.555100000000,   4.00000,
,,,0.555200000000,   4.00000,
,,,0.555300000000,   3.92000,
,,,0.555400000000,   3.92000,
,,,0.555500000000,   3.92000,
,,,0.555600000000,   3.92000,
,,,0.555700000000,   3.92000,
,,,0.555800000000,   3.84000,
,,,0.555900000000,   3.84000,
,,,0.556000000000,   3.92000,
,,,0.556100000000,   3.76000,
,,,0.556200000000,   3.76000,
,,,0.556300000000,   3.76000,
,,,0.556400000000,   3.76000,
,,,0.556500000000,   3.68000,
,,,0.556600000000,   3.68000,
,,,0.556700000000,   3.68000,
,,,0.556800000000,   3.68000,
,,,0.556900000000,   3.68000,
,,,0.557000000000,   3.68000,
,,,0.557100000000,   3.68000,
,,,0.557200000000,   3.60000,
,,,0.557300000000,   3.60000,
,,,0.557400000000,   3.52000,
,,,0.557500000000,   3.52000,
,,,0.557600000000,   3.52000,
,,,0.557700000000,   3.52000,
,,,0.557800000000,   3.44000,
,,,0.557900000000,   3.52000,
,,,0.558000000000,   3.44000,
,,,0.558100000000,   3.44000,
,,,0.558200000000,   3.36000,
,,,0.558300000000,   3.36000,
,,,0.558400000000,   3.36000,
,,,0.558500000000,   3.36000,
,,,0.558600000000,   3.36000,
,,,0.558700000000,   3.36000,
,,,0.558800000000,   3.28000,
,,,0.558900000000,   3.28000,
,,,0.559000000000,   3.28000,
,,,0.559100000000,   3.20000,
,,,0.559200000000,   3.20000,
,,,0.559300000000,   3.20000,
,,,0.559400000000,   3.20000,
,,,0.559500000000,   3.20000,
,,,0.559600000000,   3.20000,
,,,0.559700000000,   3.20000,
,,,0.559800000000,   3.12000,
,,,0.559900000000,   3.12000,
,,,0.560000000000,   3.04000,
,,,0.560100000000,   3.04000,
,,,0.560200000000,   3.04000,
,,,0.560300000000,   3.04000,
,,,0.560400000000,   3.04000,
,,,0.560500000000,   2.96000,
,,,0.560600000000,   2.96000,
,,,0.560700000000,   2.96000,
,,,0.560800000000,   2.96000,
,,,0.560900000000,   2.88000,
,,,0.561000000000,   2.88000,
,,,0.561100000000,   2.80000,
,,,0.561200000000,   2.88000,
,,,0.561300000000,   2.88000,
,,,0.561400000000,   2.80000,
,,,0.561500000000,   2.80000,
,,,0.561600000000,   2.72000,
,,,0.561700000000,   2.72000,
,,,0.561800000000,   2.72000,
,,,0.561900000000,   2.72000,
,,,0.562000000000,   2.64000,
,,,0.562100000000,   2.64000,
,,,0.562200000000,   2.64000,
,,,0.562300000000,   2.56000,
,,,0.562400000000,   2.64000,
,,,0.562500000000,   2.64000,
,,,0.562600000000,   2.56000,
,,,0.562700000000,   2.48000,
,,,0.562800000000,   2.56000,
,,,0.562900000000,   2.48000,
,,,0.563000000000,   2.48000,
,,,0.563100000000,   2.48000,
,,,0.563200000000,   2.48000,
,,,0.563300000000,   2.48000,
,,,0.563400000000,   2.40000,
,,,0.563500000000,   2.40000,
,,,0.563600000000,   2.40000,
,,,0.563700000000,   2.40000,
,,,0.563800000000,   2.32000,
,,,0.563900000000,   2.32000,
,,,0.564000000000,   2.32000,
,,,0.564100000000,   2.32000,
,,,0.564200000000,   2.32000,
,,,0.564300000000,   2.24000,
,,,0.564400000000,   2.24000,
,,,0.564500000000,   2.24000,
,,,0.564600000000,   2.24000,
,,,0.564700000000,   2.24000,
,,,0.564800000000,   2.16000,
,,,0.564900000000,   2.16000,
,,,0.565000000000,   2.16000,
,,,0.565100000000,   2.16000,
,,,0.565200000000,   2.16000,
,,,0.565300000000,   2.08000,
,,,0.565400000000,   2.08000,
,,,0.565500000000,   2.08000,
,,,0.565600000000,   2.00000,
,,,0.565700000000,   2.00000,
,,,0.565800000000,   2.00000,
,,,0.565900000000,   2.00000,
,,,0.566000000000,   1.92000,
,,,0.566100000000,   2.00000,
,,,0.566200000000,   1.92000,
,,,0.566300000000,   1.92000,
,,,0.566400000000,   1.84000,
,,,0.566500000000,   1.84000,
,,,0.566600000000,   1.84000,
,,,0.566700000000,   1.84000,
,,,0.566800000000,   1.76000,
,,,0.566900000000,   1.76000,
,,,0.567000000000,   1.76000,
,,,0.567100000000,   1.84000,
,,,0.567200000000,   1.76000,
,,,0.567300000000,   1.68000,
,,,0.567400000000,   1.68000,
,,,0.567500000000,   1.76000,
,,,0.567600000000,   1.68000,
,,,0.567700000000,   1.60000,
,,,0.567800000000,   1.60000,
,,,0.567900000000,   1.68000,
,,,0.568000000000,   1.60000,
,,,0.568100000000,   1.52000,
,,,0.568200000000,   1.60000,
,,,0.568300000000,   1.52000,
,,,0.568400000000,   1.52000,
,,,0.568500000000,   1.52000,
,,,0.568600000000,   1.44000,
,,,0.568700000000,   1.44000,
,,,0.568800000000,   1.44000,
,,,0.568900000000,   1.36000,
,,,0.569000000000,   1.44000,
,,,0.569100000000,   1.36000,
,,,0.569200000000,   1.36000,
,,,0.569300000000,   1.36000,
,,,0.569400000000,   1.28000,
,,,0.569500000000,   1.28000,
,,,0.569600000000,   1.28000,
,,,0.569700000000,   1.20000,
,,,0.569800000000,   1.20000,
,,,0.569900000000,   1.28000,
,,,0.570000000000,   1.20000,
,,,0.570100000000,   1.20000,
,,,0.570200000000,   1.12000,
,,,0.570300000000,   1.12000,
,,,0.570400000000,   1.20000,
,,,0.570500000000,   1.12000,
,,,0.570600000000,   1.12000,
,,,0.570700000000,   1.04000,
,,,0.570800000000,   1.04000,
,,,0.570900000000,   1.04000,
,,,0.571000000000,   0.96000,
,,,0.571100000000,   0.96000,
,,,0.571200000000,   1.04000,
,,,0.571300000000,   0.96000,
,,,0.571400000000,   0.96000,
,,,0.571500000000,   0.96000,
,,,0.571600000000,   0.96000,
,,,0.571700000000,   0.96000,
,,,0.571800000000,   0.96000,
,,,0.571900000000,   0.88000,
,,,0.572000000000,   0.88000,
,,,0.572100000000,   0.88000,
,,,0.572200000000,   0.88000,
,,,0.572300000000,   0.88000,
,,,0.572400000000,   0.80000,
,,,0.572500000000,   0.80000,
,,,0.572600000000,   0.72000,
,,,0.572700000000,   0.72000,
,,,0.572800000000,   0.72000,
,,,0.572900000000,   0.72000,
,,,0.573000000000,   0.64000,
,,,0.573100000000,   0.64000,
,,,0.573200000000,   0.64000,
,,,0.573300000000,   0.64000,
,,,0.573400000000,   0.56000,
,,,0.573500000000,   0.56000,
,,,0.573600000000,   0.48000,
,,,0.573700000000,   0.56000,
,,,0.573800000000,   0.56000,
,,,0.573900000000,   0.48000,
,,,0.574000000000,   0.48000,
,,,0.574100000000,   0.48000,
,,,0.574200000000,   0.48000,
,,,0.574300000000,   0.48000,
,,,0.574400000000,   0.40000,
,,,0.574500000000,   0.40000,
,,,0.574600000000,   0.40000,
,,,0.574700000000,   0.32000,
,,,0.574800000000,   0.32000,
,,,0.574900000000,   0.32000,
,,,0.575000000000,   0.32000,
,,,0.575100000000,   0.32000,
,,,0.575200000000,   0.24000,
,,,0.575300000000,   0.48000,
,,,0.575400000000,   0.48000,
,,,0.575500000000,   0.56000,
,,,0.575600000000,   0.64000,
,,,0.575700000000,   0.56000,
,,,0.575800000000,   0.64000,
,,,0.575900000000,   0.64000,
,,,0.576000000000,   0.64000,
,,,0.576100000000,   0.64000,
,,,0.576200000000,   0.72000,
,,,0.576300000000,   0.72000,
,,,0.576400000000,   0.72000,
,,,0.576500000000,   0.72000,
,,,0.576600000000,   0.80000,
,,,0.576700000000,   0.80000,
,,,0.576800000000,   0.80000,
,,,0.576900000000,   0.80000,
,,,0.577000000000,   0.96000,
,,,0.577100000000,   0.96000,
,,,0.577200000000,   0.88000,
,,,0.577300000000,   0.96000,
,,,0.577400000000,   0.96000,
,,,0.577500000000,   0.96000,
,,,0.577600000000,   0.96000,
,,,0.577700000000,   0.96000,
,,,0.577800000000,   0.96000,
,,,0.577900000000,   1.04000,
,,,0.578000000000,   1.04000,
,,,0.578100000000,   1.04000,
,,,0.578200000000,   1.12000,
,,,0.578300000000,   1.12000,
,,,0.578400000000,   1.12000,
,,,0.578500000000,   1.20000,
,,,0.578600000000,   1.20000,
,,,0.578700000000,   1.20000,
,,,0.578800000000,   1.20000,
,,,0.578900000000,   1.28000,
,,,0.579000000000,   1.28000,
,,,0.579100000000,   1.28000,
,,,0.579200000000,   1.28000,
,,,0.579300000000,   1.28000,
,,,0.579400000000,   1.36000,
,,,0.579500000000,   1.36000,
,,,0.579600000000,   1.44000,
,,,0.579700000000,   1.44000,
,,,0.579800000000,   1.44000,
,,,0.579900000000,   1.44000,
,,,0.580000000000,   1.44000,
,,,0.580100000000,   1.44000,
,,,0.580200000000,   1.52000,
,,,0.580300000000,   1.60000,
,,,0.580400000000,   1.52000,
,,,0.580500000000,   1.60000,
,,,0.580600000000,   1.60000,
,,,0.580700000000,   1.60000,
,,,0.580800000000,   1.60000,
,,,0.580900000000,   1.68000,
,,,0.581000000000,   1.68000,
,,,0.581100000000,   1.68000,
,,,0.581200000000,   1.76000,
,,,0.581300000000,   1.76000,
,,,0.581400000000,   1.76000,
,,,0.581500000000,   1.76000,
,,,0.581600000000,   1.76000,
,,,0.581700000000,   1.84000,
,,,0.581800000000,   1.84000,
,,,0.581900000000,   1.84000,
,,,0.582000000000,   1.84000,
,,,0.582100000000,   1.92000,
,,,0.582200000000,   1.92000,
,,,0.582300000000,   1.92000,
,,,0.582400000000,   2.00000,
,,,0.582500000000,   1.92000,
,,,0.582600000000,   1.92000,
,,,0.582700000000,   2.08000,
,,,0.582800000000,   2.00000,
,,,0.582900000000,   2.08000,
,,,0.583000000000,   2.08000,
,,,0.583100000000,   2.08000,
,,,0.583200000000,   2.16000,
,,,0.583300000000,   2.16000,
,,,0.583400000000,   2.16000,
,,,0.583500000000,   2.16000,
,,,0.583600000000,   2.16000,
,,,0.583700000000,   2.24000,
,,,0.583800000000,   2.24000,
,,,0.583900000000,   2.32000,
,,,0.584000000000,   2.32000,
,,,0.584100000000,   2.32000,
,,,0.584200000000,   2.32000,
,,,0.584300000000,   2.32000,
,,,0.584400000000,   2.32000,
,,,0.584500000000,   2.32000,
,,,0.584600000000,   2.32000,
,,,0.584700000000,   2.40000,
,,,0.584800000000,   2.40000,
,,,0.584900000000,   2.48000,
,,,0.585000000000,   2.48000,
,,,0.585100000000,   2.48000,
,,,0.585200000000,   2.48000,
,,,0.585300000000,   2.48000,
,,,0.585400000000,   2.56000,
,,,0.585500000000,   2.56000,
,,,0.585600000000,   2.56000,
,,,0.585700000000,   2.56000,
,,,0.585800000000,   2.64000,
,,,0.585900000000,   2.64000,
,,,0.586000000000,   2.64000,
,,,0.586100000000,   2.64000,
,,,0.586200000000,   2.72000,
,,,0.586300000000,   2.72000,
,,,0.586400000000,   2.72000,
,,,0.586500000000,   2.72000,
,,,0.586600000000,   2.80000,
,,,0.586700000000,   2.80000,
,,,0.586800000000,   2.88000,
,,,0.586900000000,   2.80000,
,,,0.587000000000,   2.88000,
,,,0.587100000000,   2.88000,
,,,0.587200000000,   2.88000,
,,,0.587300000000,   2.88000,
,,,0.587400000000,   2.96000,
,,,0.587500000000,   2.96000,
,,,0.587600000000,   2.88000,
,,,0.587700000000,   3.04000,
,,,0.587800000000,   2.96000,
,,,0.587900000000,   3.04000,
,,,0.588000000000,   3.04000,
,,,0.588100000000,   3.12000,
,,,0.588200000000,   3.04000,
,,,0.588300000000,   3.04000,
,,,0.588400000000,   3.12000,
,,,0.588500000000,   3.12000,
,,,0.588600000000,   3.12000,
,,,0.588700000000,   3.20000,
,,,0.588800000000,   3.20000,
,,,0.588900000000,   3.20000,
,,,0.589000000000,   3.20000,
,,,0.589100000000,   3.28000,
,,,0.589200000000,   3.28000,
,,,0.589300000000,   3.28000,
,,,0.589400000000,   3.28000,
,,,0.589500000000,   3.36000,
,,,0.589600000000,   3.36000,
,,,0.589700000000,   3.36000,
,,,0.589800000000,   3.44000,
,,,0.589900000000,   3.44000,
,,,0.590000000000,   3.44000,
,,,0.590100000000,   3.44000,
,,,0.590200000000,   3.44000,
,,,0.590300000000,   3.44000,
,,,0.590400000000,   3.52000,
,,,0.590500000000,   3.52000,
,,,0.590600000000,   3.60000,
,,,0.590700000000,   3.60000,
,,,0.590800000000,   3.60000,
,,,0.590900000000,   3.60000,
,,,0.591000000000,   3.68000,
,,,0.591100000000,   3.68000,
,,,0.591200000000,   3.68000,
,,,0.591300000000,   3.68000,
,,,0.591400000000,   3.68000,
,,,0.591500000000,   3.76000,
,,,0.591600000000,   3.76000,
,,,0.591700000000,   3.76000,
,,,0.591800000000,   3.84000,
,,,0.591900000000,   3.76000,
,,,0.592000000000,   3.84000,
,,,0.592100000000,   3.84000,
,,,0.592200000000,   3.92000,
,,,0.592300000000,   3.84000,
,,,0.592400000000,   3.92000,
,,,0.592500000000,   3.92000,
,,,0.592600000000,   3.92000,
,,,0.592700000000,   3.92000,
,,,0.592800000000,   4.00000,
,,,0.592900000000,   4.00000,
,,,0.593000000000,   4.00000,
,,,0.593100000000,   4.00000,
,,,0.593200000000,   4.00000,
,,,0.593300000000,   4.08000,
,,,0.593400000000,   4.08000,
,,,0.593500000000,   4.08000,
,,,0.593600000000,   4.16000,
,,,0.593700000000,   4.08000,
,,,0.593800000000,   4.16000,
,,,0.593900000000,   4.16000,
,,,0.594000000000,   4.16000,
,,,0.594100000000,   4.24000,
,,,0.594200000000,   4.24000,
,,,0.594300000000,   4.24000,
,,,0.594400000000,   4.32000,
,,,0.594500000000,   4.24000,
,,,0.594600000000,   4.32000,
,,,0.594700000000,   4.32000,
,,,0.594800000000,   4.32000,
,,,0.594900000000,   4.32000,
,,,0.595000000000,   4.40000,
,,,0.595100000000,   4.40000,
,,,0.595200000000,   4.40000,
,,,0.595300000000,   4.48000,
,,,0.595400000000,   4.48000,
,,,0.595500000000,   4.56000,
,,,0.595600000000,   4.56000,
,,,0.595700000000,   4.56000,
,,,0.595800000000,   4.56000,
,,,0.595900000000,   4.56000,
,,,0.596000000000,   4.64000,
,,,0.596100000000,   4.64000,
,,,0.596200000000,   4.64000,
,,,0.596300000000,   4.64000,
,,,0.596400000000,   4.72000,
,,,0.596500000000,   4.72000,
,,,0.596600000000,   4.72000,
,,,0.596700000000,   4.80000,
,,,0.596800000000,   4.80000,
,,,0.596900000000,   4.80000,
,,,0.597000000000,   4.72000,
,,,0.597100000000,   4.80000,
,,,0.597200000000,   4.88000,
,,,0.597300000000,   4.88000,
,,,0.597400000000,   4.88000,
,,,0.597500000000,   4.88000,
,,,0.597600000000,   4.88000,
,,,0.597700000000,   4.96000,
,,,0.597800000000,   4.88000,
,,,0.597900000000,   4.96000,
,,,0.598000000000,   5.04000,
,,,0.598100000000,   5.04000,
,,,0.598200000000,   5.04000,
,,,0.598300000000,   5.12000,
